{
  "linked_sections": [
    {
      "params": {
        "id": false,
        "static": 1,
        "sect_id": "24ee7a7f",
        "from": null,
        "data": [],
        "template": "",
        "recursive": 1,
        "sort": "NATURAL",
        "items_per_page": "2",
        "page": 1,
        "search": "",
        "filter": null
      },
      "pagi": {
        "total_items": "6",
        "items_per_page": "2",
        "total_pages": 3,
        "current_page": 1,
        "from": 1,
        "to": 2,
        "window_size": 9,
        "window_first_page": 1,
        "window_last_page": 3,
        "pages": [1, 2, 3]
      },
      "items": [
        {
          "add_chars": [],
          "item_id": "18567636",
          "__path": [
            {
              "item_id": "e40fde2c",
              "url": "/",
              "title": "Главная"
            },
            {
              "item_id": "e8748942",
              "url": "/catalog/",
              "title": "Каталог"
            },
            {
              "item_id": "24ee7a7f",
              "url": "/catalog/stroitelnie-materiali/",
              "title": "Строительные материалы"
            },
            {
              "item_id": "1f2aeaba",
              "url": "/catalog/stroitelnie-materiali/suhie-stroitelnie-smesi/",
              "title": "Сухие строительные смеси"
            }
          ],
          "type_id": null,
          "title": "Юнис Hi Tech",
          "short_title": "",
          "modify_ts": "0",
          "create_ts": "0",
          "articul": null,
          "exist": "1",
          "novelty": null,
          "rating": null,
          "vendor": [],
          "price": "240.00",
          "discount": null,
          "imgs": ["878d50b7ce6666756d5a30eb0d9d0cb1.jpg"],
          "youtube": null,
          "functions": [],
          "complection": [],
          "content": "\n<div style=\"text-align: justify;\">UNIS Hi Tech - Клеевая смесь отмечена знаком &quot;Высокие технологии UNIS&quot;. Рецептура клея создана в ГК UNIS, компании-лидере по производству клеевых смесей, на базе многолетнего опыта разработок рецептур и исследований потребительских предпочтений.</div>\n\n<div style=\"text-align: justify;\">\n  <br />\n </div>\n\n<div style=\"text-align: justify;\"><b>Подготовка основания</b></div>\n\n<div style=\"text-align: justify;\">Основание должно быть ровным, прочным, сухим, обладать несущей способностью. Перед нанесением материала необходимо удалить с поверхности осыпающиеся элементы, малярные покрытия, масляные и битумные пятна и другие загрязнения, препятствующие сцеплению материала с поверхностью. Основание должно быть выровнено по горизонтали (вертикали) с отклонениями не более, чем 1 мм на 1 м длины.</div>\n\n<div style=\"text-align: justify;\">\n  <br />\n </div>\n\n<div style=\"text-align: justify;\"><b>Приготовление раствора</b></div>\n\n<div style=\"text-align: justify;\">Для приготовления раствора следует использовать только чистые емкости и инструмент.    Сухую смесь необходимо засыпать в емкость с чистой водой (на 1 кг сухой смеси 0,21-0,26 л) и перемешивать до получения однородной массы в течение 3-5 минут.     Дать раствору отстояться 3-5 минут и повторно размешать.    Перемешивание производится ручным или механизированным способами (профессиональным миксером или дрелью с насадкой на малых оборотах).    Ручное перемешивание допускается при массе затворяемой смеси не более 1 кг.    Приготовленная порция раствора должна быть израсходована в течение 180 минут.</div>\n\n<div style=\"text-align: justify;\">\n  <br />\n </div>\n\n<div style=\"text-align: justify;\">\n  <br />\n </div>\n ",
          "certs": [],
          "linked_articles": [],
          "related": [],
          "enable": null,
          "url": "/catalog/stroitelnie-materiali/suhie-stroitelnie-smesi/yunis_hi_tech/",
          "manual_url": "yunis_hi_tech",
          "exists_in_lists": []
        },
        {
          "add_chars": [],
          "item_id": "19a5332d",
          "__path": [
            {
              "item_id": "e40fde2c",
              "url": "/",
              "title": "Главная"
            },
            {
              "item_id": "e8748942",
              "url": "/catalog/",
              "title": "Каталог"
            },
            {
              "item_id": "24ee7a7f",
              "url": "/catalog/stroitelnie-materiali/",
              "title": "Строительные материалы"
            },
            {
              "item_id": "1f2aeaba",
              "url": "/catalog/stroitelnie-materiali/suhie-stroitelnie-smesi/",
              "title": "Сухие строительные смеси"
            }
          ],
          "type_id": null,
          "title": "Портландцемент ПЦ500Д0 (ExtraCEM 500) ",
          "short_title": "",
          "modify_ts": "0",
          "create_ts": "0",
          "articul": null,
          "exist": "1",
          "novelty": null,
          "rating": null,
          "vendor": [],
          "price": "540.00",
          "discount": null,
          "imgs": ["593a32f2db95dd02f2e9543d3fdfe593.gif"],
          "youtube": null,
          "functions": [],
          "complection": [],
          "content": "\n<div>ExtraCEM 500 &ndash; это особобыстротвердеющий цемент для конструкций с повышенными требованиями к прочности и несущей способности. Обеспечивает очень быстрые сроки распалубки и возможность бетонирования при низких и отрицательных температурах.</div>\n\n<div>\n  <br />\n </div>\n\n<div><b>Особенности</b></div>\n\n<div>\n  <ul>\n    <li>Состоит из смеси цементов;</li>\n\n    <li>Водонепроницаемый;</li>\n\n    <li>Морозостойкий;</li>\n\n    <li>Безусадочный;</li>\n\n    <li>Не вызывает коррозию армирующих материалов;</li>\n\n    <li>Одобрено СЭС;</li>\n\n    <li>Не содержит хлоридов;</li>\n\n    <li>Быстрый набор прочности;</li>\n\n    <li>Схватывается через 4 минуты;</li>\n\n    <li>Высокая адгезия к стальным и цементным поверхностям;</li>\n\n    <li>Экологически безопасен;</li>\n\n    <li>Для внутренних и наружных работ.</li>\n   </ul>\n </div>\n\n<div>\n  <br />\n </div>\n\n<div><b>Применение</b></div>\n\n<div style=\"text-align: justify;\">Используется для остановки водопритоков в ограждающих конструкциях; Рекомендуется для заполнеия выбоин и трещин при срочном ремонте; Возможно применение для ускоренного крепления анкеров, полимерных и стальных конструкций в бетоне, цементно-песчаных основаниях, кирпичных и каменных кладках; Применяется как в гражданском, так и промышленном строительстве; Температура применения составляет от +5&deg;С до +30°С.</div>\n\n<div>\n  <br />\n </div>\n ",
          "certs": [],
          "linked_articles": [],
          "related": [],
          "enable": null,
          "url": "/catalog/stroitelnie-materiali/suhie-stroitelnie-smesi/portlandtsement_pts500d0_extracem_500_/",
          "manual_url": "portlandtsement_pts500d0_extracem_500_",
          "exists_in_lists": []
        }
      ],
      "section": {
        "item_id": "24ee7a7f",
        "__path": [
          {
            "item_id": "e40fde2c",
            "url": "/",
            "title": "Главная"
          },
          {
            "item_id": "e8748942",
            "url": "/catalog/",
            "title": "Каталог"
          },
          {
            "item_id": "24ee7a7f",
            "url": "/catalog/stroitelnie-materiali/",
            "title": "Строительные материалы"
          }
        ],
        "type_id": null,
        "title": "Строительные материалы",
        "short_title": null,
        "modify_ts": "0",
        "create_ts": null,
        "imgs": ["55cd23b9e91e6ccb65d14a46afbe3ca8.png"],
        "imgs_detail": [],
        "enable": "1",
        "url": "/catalog/stroitelnie-materiali/",
        "manual_url": "stroitelnie-materiali"
      },
      "map": [
        {
          "type_id": "5619b834",
          "type_name": "Корневой тип",
          "groups": {
            "__nogroup": {
              "group_id": "__nogroup",
              "tpl_key": "__nogroup",
              "variant": 0,
              "props": []
            }
          }
        },
        {
          "type_id": "a89a9153",
          "type_name": "Каталог",
          "groups": {
            "__nogroup": {
              "group_id": "__nogroup",
              "tpl_key": "__nogroup",
              "variant": 0,
              "props": {
                "articul": {
                  "prop_id": "6b3e5470",
                  "title": "Артикул",
                  "type": "STRING",
                  "tpl_key": "articul",
                  "unit": "",
                  "filter_enabled": "0",
                  "valuefield": "text"
                },
                "exist": {
                  "prop_id": "9e515ec8",
                  "title": "В наличии",
                  "type": "BOOLEAN",
                  "tpl_key": "exist",
                  "unit": "",
                  "filter_enabled": "0",
                  "valuefield": "integer"
                },
                "novelty": {
                  "prop_id": "e4f6afcf",
                  "title": "Новинка",
                  "type": "BOOLEAN",
                  "tpl_key": "novelty",
                  "unit": "",
                  "filter_enabled": "0",
                  "valuefield": "integer"
                },
                "rating": {
                  "prop_id": "2a549a57",
                  "title": "Оценка товара",
                  "type": "RATING",
                  "tpl_key": "rating",
                  "unit": "",
                  "filter_enabled": "0",
                  "valuefield": "integer"
                },
                "vendor": {
                  "prop_id": "0ad01475",
                  "title": "Бренд",
                  "type": "ITEM_LINK",
                  "tpl_key": "vendor",
                  "unit": "",
                  "filter_enabled": "1",
                  "valuefield": "text"
                },
                "price": {
                  "prop_id": "8ef03633",
                  "title": "Цена",
                  "type": "PRICE",
                  "tpl_key": "price",
                  "unit": "руб.",
                  "filter_enabled": "1",
                  "valuefield": "float"
                },
                "discount": {
                  "prop_id": "2ca0426b",
                  "title": "Скидка",
                  "type": "INTEGER",
                  "tpl_key": "discount",
                  "unit": "%",
                  "filter_enabled": "0",
                  "valuefield": "integer"
                },
                "imgs": {
                  "prop_id": "60673508",
                  "title": "Фотографии",
                  "type": "IMAGESET",
                  "tpl_key": "imgs",
                  "unit": "",
                  "filter_enabled": "0",
                  "valuefield": "text"
                },
                "youtube": {
                  "prop_id": "e405fd6c",
                  "title": "Код Youtube",
                  "type": "STRING",
                  "tpl_key": "youtube",
                  "unit": "",
                  "filter_enabled": "0",
                  "valuefield": "text"
                },
                "functions": {
                  "prop_id": "3acd7b68",
                  "title": "Функции и возможности",
                  "type": "STRINGSET",
                  "tpl_key": "functions",
                  "unit": "",
                  "filter_enabled": "0",
                  "valuefield": "text"
                },
                "complection": {
                  "prop_id": "2c22971f",
                  "title": "Комплектация",
                  "type": "STRINGSET",
                  "tpl_key": "complection",
                  "unit": "",
                  "filter_enabled": "0",
                  "valuefield": "text"
                },
                "content": {
                  "prop_id": "57f83fe7",
                  "title": "Описание",
                  "type": "TEXT",
                  "tpl_key": "content",
                  "unit": "",
                  "filter_enabled": "0",
                  "valuefield": "text"
                },
                "certs": {
                  "prop_id": "f43ac8f6",
                  "title": "Сертификаты",
                  "type": "ITEM_LINK",
                  "tpl_key": "certs",
                  "unit": "",
                  "filter_enabled": "0",
                  "valuefield": "text"
                },
                "linked_articles": {
                  "prop_id": "dc3d27aa",
                  "title": "Полезные статьи",
                  "type": "ITEM_LINK",
                  "tpl_key": "linked_articles",
                  "unit": "",
                  "filter_enabled": "0",
                  "valuefield": "text"
                },
                "related": {
                  "prop_id": "86cb9bfa",
                  "title": "С этим товаром покупают",
                  "type": "ITEM_LINK",
                  "tpl_key": "related",
                  "unit": "",
                  "filter_enabled": "0",
                  "valuefield": "text"
                }
              }
            },
            "add_chars": {
              "group_id": "7a6e369c",
              "tpl_key": "add_chars",
              "variant": "1",
              "props": {
                "val": {
                  "prop_id": "1deaa2cb",
                  "title": "Значение",
                  "type": "STRING",
                  "tpl_key": "val",
                  "unit": "",
                  "filter_enabled": "0",
                  "valuefield": "text"
                }
              }
            }
          }
        }
      ],
      "html": ""
    },
    {
      "params": {
        "id": false,
        "static": 1,
        "sect_id": "3e1e952e",
        "from": null,
        "data": [],
        "template": "",
        "recursive": 1,
        "sort": "NATURAL",
        "items_per_page": "2",
        "page": 1,
        "search": "",
        "filter": null
      },
      "pagi": {
        "total_items": "10",
        "items_per_page": "2",
        "total_pages": 5,
        "current_page": 1,
        "from": 1,
        "to": 2,
        "window_size": 9,
        "window_first_page": 1,
        "window_last_page": 5,
        "pages": [1, 2, 3, 4, 5]
      },
      "items": [
        {
          "add_chars": [],
          "item_id": "54d1e09b",
          "__path": [
            {
              "item_id": "e40fde2c",
              "url": "/",
              "title": "Главная"
            },
            {
              "item_id": "e8748942",
              "url": "/catalog/",
              "title": "Каталог"
            },
            {
              "item_id": "3e1e952e",
              "url": "/catalog/avtoelektronika/",
              "title": "Автоэлектроника"
            },
            {
              "item_id": "ded18fae",
              "url": "/catalog/avtoelektronika/gps-navigatori/",
              "title": "GPS-навигаторы"
            }
          ],
          "type_id": null,
          "title": "Навигатор Garmin SG-555",
          "short_title": "",
          "modify_ts": "0",
          "create_ts": "0",
          "articul": null,
          "exist": "1",
          "novelty": null,
          "rating": null,
          "vendor": ["b7e1ce55"],
          "price": "2000.00",
          "discount": null,
          "imgs": [
            "71dc55bf5d43d7d4654050858e3681c2.jpg",
            "8144f59b8c5bb332ac4ac9cde8a0fef9.jpg",
            "bfe42d56a4cf69221f215cb1d3e70d0d.jpg"
          ],
          "youtube": "<iframe width=\"560\" height=\"315\" src=\"https://www.youtube.com/embed/2SHb3mncmgU\" frameborder=\"0\" allowfullscreen></iframe>",
          "functions": [],
          "complection": [],
          "content": "<div style=\"text-align: justify;\">Вы часто путешествуете или много ездите по городу во время рабочего дня? Тогда навигатор должен стать вашим незаменимым спутником, особенно такой, как Lexand SG-555, ведь это один из первых автомобильных навигаторов с одновременной поддержкой двух спутниковых навигационных систем &ndash; американской GPS и российской ГЛОНАСС.  </div>\n\n<div style=\"text-align: justify;\">\n  <br />\n </div>\n\n<div style=\"text-align: justify;\">Благодаря такому сочетанию, в сложных условиях приема, например, при въезде в тоннель, ваш навигатор совершенно точно определит координаты, что не всегда удается сделать GPS- или ГЛОНАСС-системе по отдельности. Работает </div>\n\n<div style=\"text-align: justify;\">\n  <br />\n </div>\n\n<div style=\"text-align: justify;\">Lexand SG-555 на базе процессора MStar MSB2320, который может обрабатывать одновременно сигналы двух навигационных систем, так что, за скорость работы навигатора вы можете быть спокойны. Смело отправляйтесь в любую поездку и не переживайте, что заблудитесь - Lexand SG-555 приведет вас туда, куда нужно.</div>\n\n<div style=\"text-align: justify;\">\n  <br />\n </div>\n\n<div style=\"text-align: justify;\">Стильный дизайн: тонкий корпус 13 мм из материала&laquo;soft-touch&raquo;, металлическая (алюминиевая) рамка экрана. Современный высокоскоростной процессор MStar 500 МГц и ОС WinCE 6.0. Память: ОЗУ/ПЗУ 128Мб/4Гб, слот расширения microSD (поддержка SDHC до 16 Гб). Запуск любых навигационных программ (кнопка «Путь навигации»). Предустановленный навигационный пакет Навител 5 с картами России с бесплатным обновлением (возможна поставка пакетов навигации «ПРОГОРОД» и «Ситигид») .</div>\n ",
          "certs": [],
          "linked_articles": [],
          "related": [],
          "enable": null,
          "url": "/catalog/avtoelektronika/gps-navigatori/navigator_garmin_sg_555/",
          "manual_url": "navigator_garmin_sg_555",
          "exists_in_lists": []
        },
        {
          "add_chars": [],
          "item_id": "683a4066",
          "__path": [
            {
              "item_id": "e40fde2c",
              "url": "/",
              "title": "Главная"
            },
            {
              "item_id": "e8748942",
              "url": "/catalog/",
              "title": "Каталог"
            },
            {
              "item_id": "3e1e952e",
              "url": "/catalog/avtoelektronika/",
              "title": "Автоэлектроника"
            },
            {
              "item_id": "49357f33",
              "url": "/catalog/avtoelektronika/radari-detektori/",
              "title": "Радары-детекторы"
            }
          ],
          "type_id": null,
          "title": "Cobra RU R9G",
          "short_title": "",
          "modify_ts": "0",
          "create_ts": "0",
          "articul": null,
          "exist": "1",
          "novelty": null,
          "rating": null,
          "vendor": [],
          "price": "13500.00",
          "discount": null,
          "imgs": ["b257a4f116ff308ed38b542e4b8fdbf3.jpg"],
          "youtube": "<iframe width=\"420\" height=\"315\" src=\"//www.youtube.com/embed/6nHpaffTTDE\" frameborder=\"0\" allowfullscreen></iframe>",
          "functions": [],
          "complection": [],
          "content": "\n<div style=\"text-align: justify;\">Cobra RU R9G &ndash; совмещает в себе 3 приспособления в одном: радар-детектор, который устанавливается на фронтальное стекло возле зеркала заднего вида; приемник GPS, который крепится рядом с радар-детектором; беспроводной монитор, который Вы можете определить в любое удобное для Вас место. </div>\n\n<div style=\"text-align: justify;\">\n  <br />\n</div>\n\n<div style=\"text-align: justify;\">Технологическая система Superheterodyne определяет больше возможностей в виде оповещения скорости, отображения текущей скорости, цифровой компас, голосовое сопровождение, а так же опцию инстинктивного приглушения (IntelliMute) автоматически отключающую звук радар-детектора. Радар-детектор Cobra RU R9G адаптирован к условиям РФ, что дозволяет производить прием всех видов сигналов в радарных диапазонах: K, Ka, Ku, диапазон VG-2, защита от VG-2, импульсный режим Instant-On (X) + POP&trade; (K, Ka).</div>\n",
          "certs": [],
          "linked_articles": [],
          "related": [],
          "enable": null,
          "url": "/catalog/avtoelektronika/radari-detektori/cobra_ru_r9g/",
          "manual_url": "cobra_ru_r9g",
          "exists_in_lists": []
        }
      ],
      "section": {
        "item_id": "3e1e952e",
        "__path": [
          {
            "item_id": "e40fde2c",
            "url": "/",
            "title": "Главная"
          },
          {
            "item_id": "e8748942",
            "url": "/catalog/",
            "title": "Каталог"
          },
          {
            "item_id": "3e1e952e",
            "url": "/catalog/avtoelektronika/",
            "title": "Автоэлектроника"
          }
        ],
        "type_id": null,
        "title": "Автоэлектроника",
        "short_title": null,
        "modify_ts": "0",
        "create_ts": null,
        "imgs": ["9f9e4329e1b1481419bc884424279c6e.png"],
        "imgs_detail": [],
        "enable": "1",
        "url": "/catalog/avtoelektronika/",
        "manual_url": "avtoelektronika"
      },
      "map": [
        {
          "type_id": "5619b834",
          "type_name": "Корневой тип",
          "groups": {
            "__nogroup": {
              "group_id": "__nogroup",
              "tpl_key": "__nogroup",
              "variant": 0,
              "props": []
            }
          }
        },
        {
          "type_id": "a89a9153",
          "type_name": "Каталог",
          "groups": {
            "__nogroup": {
              "group_id": "__nogroup",
              "tpl_key": "__nogroup",
              "variant": 0,
              "props": {
                "articul": {
                  "prop_id": "6b3e5470",
                  "title": "Артикул",
                  "type": "STRING",
                  "tpl_key": "articul",
                  "unit": "",
                  "filter_enabled": "0",
                  "valuefield": "text"
                },
                "exist": {
                  "prop_id": "9e515ec8",
                  "title": "В наличии",
                  "type": "BOOLEAN",
                  "tpl_key": "exist",
                  "unit": "",
                  "filter_enabled": "0",
                  "valuefield": "integer"
                },
                "novelty": {
                  "prop_id": "e4f6afcf",
                  "title": "Новинка",
                  "type": "BOOLEAN",
                  "tpl_key": "novelty",
                  "unit": "",
                  "filter_enabled": "0",
                  "valuefield": "integer"
                },
                "rating": {
                  "prop_id": "2a549a57",
                  "title": "Оценка товара",
                  "type": "RATING",
                  "tpl_key": "rating",
                  "unit": "",
                  "filter_enabled": "0",
                  "valuefield": "integer"
                },
                "vendor": {
                  "prop_id": "0ad01475",
                  "title": "Бренд",
                  "type": "ITEM_LINK",
                  "tpl_key": "vendor",
                  "unit": "",
                  "filter_enabled": "1",
                  "valuefield": "text"
                },
                "price": {
                  "prop_id": "8ef03633",
                  "title": "Цена",
                  "type": "PRICE",
                  "tpl_key": "price",
                  "unit": "руб.",
                  "filter_enabled": "1",
                  "valuefield": "float"
                },
                "discount": {
                  "prop_id": "2ca0426b",
                  "title": "Скидка",
                  "type": "INTEGER",
                  "tpl_key": "discount",
                  "unit": "%",
                  "filter_enabled": "0",
                  "valuefield": "integer"
                },
                "imgs": {
                  "prop_id": "60673508",
                  "title": "Фотографии",
                  "type": "IMAGESET",
                  "tpl_key": "imgs",
                  "unit": "",
                  "filter_enabled": "0",
                  "valuefield": "text"
                },
                "youtube": {
                  "prop_id": "e405fd6c",
                  "title": "Код Youtube",
                  "type": "STRING",
                  "tpl_key": "youtube",
                  "unit": "",
                  "filter_enabled": "0",
                  "valuefield": "text"
                },
                "functions": {
                  "prop_id": "3acd7b68",
                  "title": "Функции и возможности",
                  "type": "STRINGSET",
                  "tpl_key": "functions",
                  "unit": "",
                  "filter_enabled": "0",
                  "valuefield": "text"
                },
                "complection": {
                  "prop_id": "2c22971f",
                  "title": "Комплектация",
                  "type": "STRINGSET",
                  "tpl_key": "complection",
                  "unit": "",
                  "filter_enabled": "0",
                  "valuefield": "text"
                },
                "content": {
                  "prop_id": "57f83fe7",
                  "title": "Описание",
                  "type": "TEXT",
                  "tpl_key": "content",
                  "unit": "",
                  "filter_enabled": "0",
                  "valuefield": "text"
                },
                "certs": {
                  "prop_id": "f43ac8f6",
                  "title": "Сертификаты",
                  "type": "ITEM_LINK",
                  "tpl_key": "certs",
                  "unit": "",
                  "filter_enabled": "0",
                  "valuefield": "text"
                },
                "linked_articles": {
                  "prop_id": "dc3d27aa",
                  "title": "Полезные статьи",
                  "type": "ITEM_LINK",
                  "tpl_key": "linked_articles",
                  "unit": "",
                  "filter_enabled": "0",
                  "valuefield": "text"
                },
                "related": {
                  "prop_id": "86cb9bfa",
                  "title": "С этим товаром покупают",
                  "type": "ITEM_LINK",
                  "tpl_key": "related",
                  "unit": "",
                  "filter_enabled": "0",
                  "valuefield": "text"
                }
              }
            },
            "add_chars": {
              "group_id": "7a6e369c",
              "tpl_key": "add_chars",
              "variant": "1",
              "props": {
                "val": {
                  "prop_id": "1deaa2cb",
                  "title": "Значение",
                  "type": "STRING",
                  "tpl_key": "val",
                  "unit": "",
                  "filter_enabled": "0",
                  "valuefield": "text"
                }
              }
            }
          }
        }
      ],
      "html": ""
    }
  ]
}
